<?xml version="1.0" standalone="no"?>
<!DOCTYPE svg PUBLIC "-//W3C//DTD SVG 20010904//EN"
 "http://www.w3.org/TR/2001/REC-SVG-20010904/DTD/svg10.dtd">
<svg version="1.0" xmlns="http://www.w3.org/2000/svg"
 width="600.000000pt" height="600.000000pt" viewBox="0 0 600.000000 600.000000"
 preserveAspectRatio="xMidYMid meet">
<metadata>
Created by potrace 1.14, written by Peter Selinger 2001-2017
</metadata>
<g transform="translate(0.000000,600.000000) scale(0.100000,-0.100000)"
fill="#000000" stroke="none">
<path d="M1848 5533 c-35 -60 -128 -219 -208 -354 l-144 -246 -748 -318 c-411
-175 -748 -323 -748 -329 0 -10 420 -962 435 -985 2 -5 193 69 422 164 l418
173 18 -136 c10 -75 20 -138 22 -140 4 -4 1224 453 1232 462 6 6 -621 1816
-629 1816 -4 0 -35 -48 -70 -107z"/>
<path d="M5959 4363 c-308 -544 -591 -822 -981 -967 l-97 -36 -1084 0 -1085 0
-43 125 c-24 72 -47 124 -53 122 -6 -2 -296 -111 -643 -242 l-633 -238 0 -216
c0 -119 -7 -686 -15 -1261 -8 -575 -15 -1100 -15 -1167 l0 -123 363 0 362 0
140 570 140 570 1027 0 c566 0 1028 -3 1028 -6 0 -7 227 -1073 237 -1111 l5
-23 349 0 349 0 0 88 c2 326 49 2373 56 2383 4 7 41 56 82 108 285 364 463
730 523 1071 19 110 38 410 26 410 -3 0 -20 -26 -38 -57z"/>
</g>
</svg>
